(kicad_sch (version 20211123) (generator eeschema)

  (uuid c3c93de0-69b1-4a04-8e0b-d78caf487c63)

  (paper "A4")

  (lib_symbols
    (symbol "Connector:Conn_Coaxial" (pin_names (offset 1.016) hide) (in_bom yes) (on_board yes)
      (property "Reference" "J" (id 0) (at 0.254 3.048 0)
        (effects (font (size 1.27 1.27)))
      )
      (property "Value" "Conn_Coaxial" (id 1) (at 2.921 0 90)
        (effects (font (size 1.27 1.27)))
      )
      (property "Footprint" "" (id 2) (at 0 0 0)
        (effects (font (size 1.27 1.27)) hide)
      )
      (property "Datasheet" " ~" (id 3) (at 0 0 0)
        (effects (font (size 1.27 1.27)) hide)
      )
      (property "ki_keywords" "BNC SMA SMB SMC LEMO coaxial connector CINCH RCA" (id 4) (at 0 0 0)
        (effects (font (size 1.27 1.27)) hide)
      )
      (property "ki_description" "coaxial connector (BNC, SMA, SMB, SMC, Cinch/RCA, LEMO, ...)" (id 5) (at 0 0 0)
        (effects (font (size 1.27 1.27)) hide)
      )
      (property "ki_fp_filters" "*BNC* *SMA* *SMB* *SMC* *Cinch* *LEMO*" (id 6) (at 0 0 0)
        (effects (font (size 1.27 1.27)) hide)
      )
      (symbol "Conn_Coaxial_0_1"
        (arc (start -1.778 -0.508) (mid 0.2311 -1.8066) (end 1.778 0)
          (stroke (width 0.254) (type default) (color 0 0 0 0))
          (fill (type none))
        )
        (polyline
          (pts
            (xy -2.54 0)
            (xy -0.508 0)
          )
          (stroke (width 0) (type default) (color 0 0 0 0))
          (fill (type none))
        )
        (polyline
          (pts
            (xy 0 -2.54)
            (xy 0 -1.778)
          )
          (stroke (width 0) (type default) (color 0 0 0 0))
          (fill (type none))
        )
        (circle (center 0 0) (radius 0.508)
          (stroke (width 0.2032) (type default) (color 0 0 0 0))
          (fill (type none))
        )
        (arc (start 1.778 0) (mid 0.2099 1.8101) (end -1.778 0.508)
          (stroke (width 0.254) (type default) (color 0 0 0 0))
          (fill (type none))
        )
      )
      (symbol "Conn_Coaxial_1_1"
        (pin passive line (at -5.08 0 0) (length 2.54)
          (name "In" (effects (font (size 1.27 1.27))))
          (number "1" (effects (font (size 1.27 1.27))))
        )
        (pin passive line (at 0 -5.08 90) (length 2.54)
          (name "Ext" (effects (font (size 1.27 1.27))))
          (number "2" (effects (font (size 1.27 1.27))))
        )
      )
    )
    (symbol "Connector_Generic:Conn_01x02" (pin_names (offset 1.016) hide) (in_bom yes) (on_board yes)
      (property "Reference" "J" (id 0) (at 0 2.54 0)
        (effects (font (size 1.27 1.27)))
      )
      (property "Value" "Conn_01x02" (id 1) (at 0 -5.08 0)
        (effects (font (size 1.27 1.27)))
      )
      (property "Footprint" "" (id 2) (at 0 0 0)
        (effects (font (size 1.27 1.27)) hide)
      )
      (property "Datasheet" "~" (id 3) (at 0 0 0)
        (effects (font (size 1.27 1.27)) hide)
      )
      (property "ki_keywords" "connector" (id 4) (at 0 0 0)
        (effects (font (size 1.27 1.27)) hide)
      )
      (property "ki_description" "Generic connector, single row, 01x02, script generated (kicad-library-utils/schlib/autogen/connector/)" (id 5) (at 0 0 0)
        (effects (font (size 1.27 1.27)) hide)
      )
      (property "ki_fp_filters" "Connector*:*_1x??_*" (id 6) (at 0 0 0)
        (effects (font (size 1.27 1.27)) hide)
      )
      (symbol "Conn_01x02_1_1"
        (rectangle (start -1.27 -2.413) (end 0 -2.667)
          (stroke (width 0.1524) (type default) (color 0 0 0 0))
          (fill (type none))
        )
        (rectangle (start -1.27 0.127) (end 0 -0.127)
          (stroke (width 0.1524) (type default) (color 0 0 0 0))
          (fill (type none))
        )
        (rectangle (start -1.27 1.27) (end 1.27 -3.81)
          (stroke (width 0.254) (type default) (color 0 0 0 0))
          (fill (type background))
        )
        (pin passive line (at -5.08 0 0) (length 3.81)
          (name "Pin_1" (effects (font (size 1.27 1.27))))
          (number "1" (effects (font (size 1.27 1.27))))
        )
        (pin passive line (at -5.08 -2.54 0) (length 3.81)
          (name "Pin_2" (effects (font (size 1.27 1.27))))
          (number "2" (effects (font (size 1.27 1.27))))
        )
      )
    )
    (symbol "Connector_Generic:Conn_01x05" (pin_names (offset 1.016) hide) (in_bom yes) (on_board yes)
      (property "Reference" "J" (id 0) (at 0 7.62 0)
        (effects (font (size 1.27 1.27)))
      )
      (property "Value" "Conn_01x05" (id 1) (at 0 -7.62 0)
        (effects (font (size 1.27 1.27)))
      )
      (property "Footprint" "" (id 2) (at 0 0 0)
        (effects (font (size 1.27 1.27)) hide)
      )
      (property "Datasheet" "~" (id 3) (at 0 0 0)
        (effects (font (size 1.27 1.27)) hide)
      )
      (property "ki_keywords" "connector" (id 4) (at 0 0 0)
        (effects (font (size 1.27 1.27)) hide)
      )
      (property "ki_description" "Generic connector, single row, 01x05, script generated (kicad-library-utils/schlib/autogen/connector/)" (id 5) (at 0 0 0)
        (effects (font (size 1.27 1.27)) hide)
      )
      (property "ki_fp_filters" "Connector*:*_1x??_*" (id 6) (at 0 0 0)
        (effects (font (size 1.27 1.27)) hide)
      )
      (symbol "Conn_01x05_1_1"
        (rectangle (start -1.27 -4.953) (end 0 -5.207)
          (stroke (width 0.1524) (type default) (color 0 0 0 0))
          (fill (type none))
        )
        (rectangle (start -1.27 -2.413) (end 0 -2.667)
          (stroke (width 0.1524) (type default) (color 0 0 0 0))
          (fill (type none))
        )
        (rectangle (start -1.27 0.127) (end 0 -0.127)
          (stroke (width 0.1524) (type default) (color 0 0 0 0))
          (fill (type none))
        )
        (rectangle (start -1.27 2.667) (end 0 2.413)
          (stroke (width 0.1524) (type default) (color 0 0 0 0))
          (fill (type none))
        )
        (rectangle (start -1.27 5.207) (end 0 4.953)
          (stroke (width 0.1524) (type default) (color 0 0 0 0))
          (fill (type none))
        )
        (rectangle (start -1.27 6.35) (end 1.27 -6.35)
          (stroke (width 0.254) (type default) (color 0 0 0 0))
          (fill (type background))
        )
        (pin passive line (at -5.08 5.08 0) (length 3.81)
          (name "Pin_1" (effects (font (size 1.27 1.27))))
          (number "1" (effects (font (size 1.27 1.27))))
        )
        (pin passive line (at -5.08 2.54 0) (length 3.81)
          (name "Pin_2" (effects (font (size 1.27 1.27))))
          (number "2" (effects (font (size 1.27 1.27))))
        )
        (pin passive line (at -5.08 0 0) (length 3.81)
          (name "Pin_3" (effects (font (size 1.27 1.27))))
          (number "3" (effects (font (size 1.27 1.27))))
        )
        (pin passive line (at -5.08 -2.54 0) (length 3.81)
          (name "Pin_4" (effects (font (size 1.27 1.27))))
          (number "4" (effects (font (size 1.27 1.27))))
        )
        (pin passive line (at -5.08 -5.08 0) (length 3.81)
          (name "Pin_5" (effects (font (size 1.27 1.27))))
          (number "5" (effects (font (size 1.27 1.27))))
        )
      )
    )
    (symbol "Connector_Generic:Conn_01x07" (pin_names (offset 1.016) hide) (in_bom yes) (on_board yes)
      (property "Reference" "J" (id 0) (at 0 10.16 0)
        (effects (font (size 1.27 1.27)))
      )
      (property "Value" "Conn_01x07" (id 1) (at 0 -10.16 0)
        (effects (font (size 1.27 1.27)))
      )
      (property "Footprint" "" (id 2) (at 0 0 0)
        (effects (font (size 1.27 1.27)) hide)
      )
      (property "Datasheet" "~" (id 3) (at 0 0 0)
        (effects (font (size 1.27 1.27)) hide)
      )
      (property "ki_keywords" "connector" (id 4) (at 0 0 0)
        (effects (font (size 1.27 1.27)) hide)
      )
      (property "ki_description" "Generic connector, single row, 01x07, script generated (kicad-library-utils/schlib/autogen/connector/)" (id 5) (at 0 0 0)
        (effects (font (size 1.27 1.27)) hide)
      )
      (property "ki_fp_filters" "Connector*:*_1x??_*" (id 6) (at 0 0 0)
        (effects (font (size 1.27 1.27)) hide)
      )
      (symbol "Conn_01x07_1_1"
        (rectangle (start -1.27 -7.493) (end 0 -7.747)
          (stroke (width 0.1524) (type default) (color 0 0 0 0))
          (fill (type none))
        )
        (rectangle (start -1.27 -4.953) (end 0 -5.207)
          (stroke (width 0.1524) (type default) (color 0 0 0 0))
          (fill (type none))
        )
        (rectangle (start -1.27 -2.413) (end 0 -2.667)
          (stroke (width 0.1524) (type default) (color 0 0 0 0))
          (fill (type none))
        )
        (rectangle (start -1.27 0.127) (end 0 -0.127)
          (stroke (width 0.1524) (type default) (color 0 0 0 0))
          (fill (type none))
        )
        (rectangle (start -1.27 2.667) (end 0 2.413)
          (stroke (width 0.1524) (type default) (color 0 0 0 0))
          (fill (type none))
        )
        (rectangle (start -1.27 5.207) (end 0 4.953)
          (stroke (width 0.1524) (type default) (color 0 0 0 0))
          (fill (type none))
        )
        (rectangle (start -1.27 7.747) (end 0 7.493)
          (stroke (width 0.1524) (type default) (color 0 0 0 0))
          (fill (type none))
        )
        (rectangle (start -1.27 8.89) (end 1.27 -8.89)
          (stroke (width 0.254) (type default) (color 0 0 0 0))
          (fill (type background))
        )
        (pin passive line (at -5.08 7.62 0) (length 3.81)
          (name "Pin_1" (effects (font (size 1.27 1.27))))
          (number "1" (effects (font (size 1.27 1.27))))
        )
        (pin passive line (at -5.08 5.08 0) (length 3.81)
          (name "Pin_2" (effects (font (size 1.27 1.27))))
          (number "2" (effects (font (size 1.27 1.27))))
        )
        (pin passive line (at -5.08 2.54 0) (length 3.81)
          (name "Pin_3" (effects (font (size 1.27 1.27))))
          (number "3" (effects (font (size 1.27 1.27))))
        )
        (pin passive line (at -5.08 0 0) (length 3.81)
          (name "Pin_4" (effects (font (size 1.27 1.27))))
          (number "4" (effects (font (size 1.27 1.27))))
        )
        (pin passive line (at -5.08 -2.54 0) (length 3.81)
          (name "Pin_5" (effects (font (size 1.27 1.27))))
          (number "5" (effects (font (size 1.27 1.27))))
        )
        (pin passive line (at -5.08 -5.08 0) (length 3.81)
          (name "Pin_6" (effects (font (size 1.27 1.27))))
          (number "6" (effects (font (size 1.27 1.27))))
        )
        (pin passive line (at -5.08 -7.62 0) (length 3.81)
          (name "Pin_7" (effects (font (size 1.27 1.27))))
          (number "7" (effects (font (size 1.27 1.27))))
        )
      )
    )
    (symbol "Device:C_Small" (pin_numbers hide) (pin_names (offset 0.254) hide) (in_bom yes) (on_board yes)
      (property "Reference" "C" (id 0) (at 0.254 1.778 0)
        (effects (font (size 1.27 1.27)) (justify left))
      )
      (property "Value" "C_Small" (id 1) (at 0.254 -2.032 0)
        (effects (font (size 1.27 1.27)) (justify left))
      )
      (property "Footprint" "" (id 2) (at 0 0 0)
        (effects (font (size 1.27 1.27)) hide)
      )
      (property "Datasheet" "~" (id 3) (at 0 0 0)
        (effects (font (size 1.27 1.27)) hide)
      )
      (property "ki_keywords" "capacitor cap" (id 4) (at 0 0 0)
        (effects (font (size 1.27 1.27)) hide)
      )
      (property "ki_description" "Unpolarized capacitor, small symbol" (id 5) (at 0 0 0)
        (effects (font (size 1.27 1.27)) hide)
      )
      (property "ki_fp_filters" "C_*" (id 6) (at 0 0 0)
        (effects (font (size 1.27 1.27)) hide)
      )
      (symbol "C_Small_0_1"
        (polyline
          (pts
            (xy -1.524 -0.508)
            (xy 1.524 -0.508)
          )
          (stroke (width 0.3302) (type default) (color 0 0 0 0))
          (fill (type none))
        )
        (polyline
          (pts
            (xy -1.524 0.508)
            (xy 1.524 0.508)
          )
          (stroke (width 0.3048) (type default) (color 0 0 0 0))
          (fill (type none))
        )
      )
      (symbol "C_Small_1_1"
        (pin passive line (at 0 2.54 270) (length 2.032)
          (name "~" (effects (font (size 1.27 1.27))))
          (number "1" (effects (font (size 1.27 1.27))))
        )
        (pin passive line (at 0 -2.54 90) (length 2.032)
          (name "~" (effects (font (size 1.27 1.27))))
          (number "2" (effects (font (size 1.27 1.27))))
        )
      )
    )
    (symbol "Device:Transformer_1P_1S" (pin_names (offset 1.016) hide) (in_bom yes) (on_board yes)
      (property "Reference" "T" (id 0) (at 0 6.35 0)
        (effects (font (size 1.27 1.27)))
      )
      (property "Value" "Transformer_1P_1S" (id 1) (at 0 -7.62 0)
        (effects (font (size 1.27 1.27)))
      )
      (property "Footprint" "" (id 2) (at 0 0 0)
        (effects (font (size 1.27 1.27)) hide)
      )
      (property "Datasheet" "~" (id 3) (at 0 0 0)
        (effects (font (size 1.27 1.27)) hide)
      )
      (property "ki_keywords" "transformer coil magnet" (id 4) (at 0 0 0)
        (effects (font (size 1.27 1.27)) hide)
      )
      (property "ki_description" "Transformer, single primary, single secondary" (id 5) (at 0 0 0)
        (effects (font (size 1.27 1.27)) hide)
      )
      (symbol "Transformer_1P_1S_0_1"
        (arc (start -2.54 -5.0546) (mid -1.6599 -4.6901) (end -1.27 -3.81)
          (stroke (width 0) (type default) (color 0 0 0 0))
          (fill (type none))
        )
        (arc (start -2.54 -2.5146) (mid -1.6599 -2.1501) (end -1.27 -1.27)
          (stroke (width 0) (type default) (color 0 0 0 0))
          (fill (type none))
        )
        (arc (start -2.54 0.0254) (mid -1.6599 0.3899) (end -1.27 1.27)
          (stroke (width 0) (type default) (color 0 0 0 0))
          (fill (type none))
        )
        (arc (start -2.54 2.5654) (mid -1.6599 2.9299) (end -1.27 3.81)
          (stroke (width 0) (type default) (color 0 0 0 0))
          (fill (type none))
        )
        (arc (start -1.27 -3.81) (mid -1.642 -2.912) (end -2.54 -2.54)
          (stroke (width 0) (type default) (color 0 0 0 0))
          (fill (type none))
        )
        (arc (start -1.27 -1.27) (mid -1.642 -0.372) (end -2.54 0)
          (stroke (width 0) (type default) (color 0 0 0 0))
          (fill (type none))
        )
        (arc (start -1.27 1.27) (mid -1.642 2.168) (end -2.54 2.54)
          (stroke (width 0) (type default) (color 0 0 0 0))
          (fill (type none))
        )
        (arc (start -1.27 3.81) (mid -1.642 4.708) (end -2.54 5.08)
          (stroke (width 0) (type default) (color 0 0 0 0))
          (fill (type none))
        )
        (polyline
          (pts
            (xy -0.635 5.08)
            (xy -0.635 -5.08)
          )
          (stroke (width 0) (type default) (color 0 0 0 0))
          (fill (type none))
        )
        (polyline
          (pts
            (xy 0.635 -5.08)
            (xy 0.635 5.08)
          )
          (stroke (width 0) (type default) (color 0 0 0 0))
          (fill (type none))
        )
        (arc (start 1.2954 -1.27) (mid 1.6599 -2.1501) (end 2.54 -2.5146)
          (stroke (width 0) (type default) (color 0 0 0 0))
          (fill (type none))
        )
        (arc (start 1.2954 1.27) (mid 1.6599 0.3899) (end 2.54 0.0254)
          (stroke (width 0) (type default) (color 0 0 0 0))
          (fill (type none))
        )
        (arc (start 1.2954 3.81) (mid 1.6599 2.9299) (end 2.54 2.5654)
          (stroke (width 0) (type default) (color 0 0 0 0))
          (fill (type none))
        )
        (arc (start 1.3208 -3.81) (mid 1.6853 -4.6901) (end 2.5654 -5.0546)
          (stroke (width 0) (type default) (color 0 0 0 0))
          (fill (type none))
        )
        (arc (start 2.54 0) (mid 1.642 -0.372) (end 1.2954 -1.27)
          (stroke (width 0) (type default) (color 0 0 0 0))
          (fill (type none))
        )
        (arc (start 2.54 2.54) (mid 1.642 2.168) (end 1.2954 1.27)
          (stroke (width 0) (type default) (color 0 0 0 0))
          (fill (type none))
        )
        (arc (start 2.54 5.08) (mid 1.642 4.708) (end 1.2954 3.81)
          (stroke (width 0) (type default) (color 0 0 0 0))
          (fill (type none))
        )
        (arc (start 2.5654 -2.54) (mid 1.6674 -2.912) (end 1.3208 -3.81)
          (stroke (width 0) (type default) (color 0 0 0 0))
          (fill (type none))
        )
      )
      (symbol "Transformer_1P_1S_1_1"
        (pin passive line (at -10.16 5.08 0) (length 7.62)
          (name "AA" (effects (font (size 1.27 1.27))))
          (number "1" (effects (font (size 1.27 1.27))))
        )
        (pin passive line (at -10.16 -5.08 0) (length 7.62)
          (name "AB" (effects (font (size 1.27 1.27))))
          (number "2" (effects (font (size 1.27 1.27))))
        )
        (pin passive line (at 10.16 -5.08 180) (length 7.62)
          (name "SA" (effects (font (size 1.27 1.27))))
          (number "3" (effects (font (size 1.27 1.27))))
        )
        (pin passive line (at 10.16 5.08 180) (length 7.62)
          (name "SB" (effects (font (size 1.27 1.27))))
          (number "4" (effects (font (size 1.27 1.27))))
        )
      )
    )
    (symbol "Mechanical:MountingHole" (pin_names (offset 1.016)) (in_bom yes) (on_board yes)
      (property "Reference" "H" (id 0) (at 0 5.08 0)
        (effects (font (size 1.27 1.27)))
      )
      (property "Value" "MountingHole" (id 1) (at 0 3.175 0)
        (effects (font (size 1.27 1.27)))
      )
      (property "Footprint" "" (id 2) (at 0 0 0)
        (effects (font (size 1.27 1.27)) hide)
      )
      (property "Datasheet" "~" (id 3) (at 0 0 0)
        (effects (font (size 1.27 1.27)) hide)
      )
      (property "ki_keywords" "mounting hole" (id 4) (at 0 0 0)
        (effects (font (size 1.27 1.27)) hide)
      )
      (property "ki_description" "Mounting Hole without connection" (id 5) (at 0 0 0)
        (effects (font (size 1.27 1.27)) hide)
      )
      (property "ki_fp_filters" "MountingHole*" (id 6) (at 0 0 0)
        (effects (font (size 1.27 1.27)) hide)
      )
      (symbol "MountingHole_0_1"
        (circle (center 0 0) (radius 1.27)
          (stroke (width 1.27) (type default) (color 0 0 0 0))
          (fill (type none))
        )
      )
    )
    (symbol "lsf-kicad:LTCC-Balun-06Pins" (in_bom yes) (on_board yes)
      (property "Reference" "T" (id 0) (at 12.7 7.62 0)
        (effects (font (size 1.27 1.27)))
      )
      (property "Value" "LTCC-Balun-06Pins" (id 1) (at 12.7 10.16 0)
        (effects (font (size 1.27 1.27)))
      )
      (property "Footprint" "" (id 2) (at 0 0 0)
        (effects (font (size 1.27 1.27)) hide)
      )
      (property "Datasheet" "~" (id 3) (at 0 0 0)
        (effects (font (size 1.27 1.27)) hide)
      )
      (property "ki_keywords" "Balun" (id 4) (at 0 0 0)
        (effects (font (size 1.27 1.27)) hide)
      )
      (property "ki_description" "Multilayer Balun" (id 5) (at 0 0 0)
        (effects (font (size 1.27 1.27)) hide)
      )
      (property "ki_fp_filters" "*Balun*" (id 6) (at 0 0 0)
        (effects (font (size 1.27 1.27)) hide)
      )
      (symbol "LTCC-Balun-06Pins_0_1"
        (rectangle (start -7.62 7.62) (end 7.62 -7.62)
          (stroke (width 0.254) (type default) (color 0 0 0 0))
          (fill (type background))
        )
        (rectangle (start 7.62 -7.62) (end 7.62 -7.62)
          (stroke (width 0.254) (type default) (color 0 0 0 0))
          (fill (type none))
        )
      )
      (symbol "LTCC-Balun-06Pins_1_1"
        (pin bidirectional line (at -10.16 0 0) (length 2.54)
          (name "UnB" (effects (font (size 1.27 1.27))))
          (number "1" (effects (font (size 1.27 1.27))))
        )
        (pin power_in line (at 0 10.16 270) (length 2.54)
          (name "GND/DC" (effects (font (size 1.27 1.27))))
          (number "2" (effects (font (size 1.27 1.27))))
        )
        (pin bidirectional line (at 10.16 2.54 180) (length 2.54)
          (name "Bal" (effects (font (size 1.27 1.27))))
          (number "3" (effects (font (size 1.27 1.27))))
        )
        (pin bidirectional line (at 10.16 -2.54 180) (length 2.54)
          (name "Bal" (effects (font (size 1.27 1.27))))
          (number "4" (effects (font (size 1.27 1.27))))
        )
        (pin power_in line (at 0 -10.16 90) (length 2.54)
          (name "GND" (effects (font (size 1.27 1.27))))
          (number "5" (effects (font (size 1.27 1.27))))
        )
        (pin no_connect line (at -10.16 -2.54 0) (length 2.54) hide
          (name "NC" (effects (font (size 1.27 1.27))))
          (number "6" (effects (font (size 1.27 1.27))))
        )
      )
    )
    (symbol "power:GND" (power) (pin_names (offset 0)) (in_bom yes) (on_board yes)
      (property "Reference" "#PWR" (id 0) (at 0 -6.35 0)
        (effects (font (size 1.27 1.27)) hide)
      )
      (property "Value" "GND" (id 1) (at 0 -3.81 0)
        (effects (font (size 1.27 1.27)))
      )
      (property "Footprint" "" (id 2) (at 0 0 0)
        (effects (font (size 1.27 1.27)) hide)
      )
      (property "Datasheet" "" (id 3) (at 0 0 0)
        (effects (font (size 1.27 1.27)) hide)
      )
      (property "ki_keywords" "power-flag" (id 4) (at 0 0 0)
        (effects (font (size 1.27 1.27)) hide)
      )
      (property "ki_description" "Power symbol creates a global label with name \"GND\" , ground" (id 5) (at 0 0 0)
        (effects (font (size 1.27 1.27)) hide)
      )
      (symbol "GND_0_1"
        (polyline
          (pts
            (xy 0 0)
            (xy 0 -1.27)
            (xy 1.27 -1.27)
            (xy 0 -2.54)
            (xy -1.27 -1.27)
            (xy 0 -1.27)
          )
          (stroke (width 0) (type default) (color 0 0 0 0))
          (fill (type none))
        )
      )
      (symbol "GND_1_1"
        (pin power_in line (at 0 0 270) (length 0) hide
          (name "GND" (effects (font (size 1.27 1.27))))
          (number "1" (effects (font (size 1.27 1.27))))
        )
      )
    )
    (symbol "power:PWR_FLAG" (power) (pin_numbers hide) (pin_names (offset 0) hide) (in_bom yes) (on_board yes)
      (property "Reference" "#FLG" (id 0) (at 0 1.905 0)
        (effects (font (size 1.27 1.27)) hide)
      )
      (property "Value" "PWR_FLAG" (id 1) (at 0 3.81 0)
        (effects (font (size 1.27 1.27)))
      )
      (property "Footprint" "" (id 2) (at 0 0 0)
        (effects (font (size 1.27 1.27)) hide)
      )
      (property "Datasheet" "~" (id 3) (at 0 0 0)
        (effects (font (size 1.27 1.27)) hide)
      )
      (property "ki_keywords" "power-flag" (id 4) (at 0 0 0)
        (effects (font (size 1.27 1.27)) hide)
      )
      (property "ki_description" "Special symbol for telling ERC where power comes from" (id 5) (at 0 0 0)
        (effects (font (size 1.27 1.27)) hide)
      )
      (symbol "PWR_FLAG_0_0"
        (pin power_out line (at 0 0 90) (length 0)
          (name "pwr" (effects (font (size 1.27 1.27))))
          (number "1" (effects (font (size 1.27 1.27))))
        )
      )
      (symbol "PWR_FLAG_0_1"
        (polyline
          (pts
            (xy 0 0)
            (xy 0 1.27)
            (xy -1.016 1.905)
            (xy 0 2.54)
            (xy 1.016 1.905)
            (xy 0 1.27)
          )
          (stroke (width 0) (type default) (color 0 0 0 0))
          (fill (type none))
        )
      )
    )
  )

  (junction (at 177.8 90.17) (diameter 0) (color 0 0 0 0)
    (uuid 13666052-b7b8-40fe-9c98-93f5909dc61a)
  )
  (junction (at 128.27 87.63) (diameter 0) (color 0 0 0 0)
    (uuid 4863c986-c3eb-4ff1-90bf-94a34fd474e4)
  )

  (no_connect (at 168.91 88.9) (uuid acf1f94d-dda8-4f30-90a7-f2405db400d7))

  (wire (pts (xy 139.7 92.71) (xy 142.24 90.17))
    (stroke (width 0) (type default) (color 0 0 0 0))
    (uuid 058100f9-f89d-4d3a-b128-e0941bda5df3)
  )
  (wire (pts (xy 142.24 82.55) (xy 139.7 82.55))
    (stroke (width 0) (type default) (color 0 0 0 0))
    (uuid 0be4a00a-5921-428a-b6fe-7ce0762640aa)
  )
  (wire (pts (xy 127 69.85) (xy 139.7 69.85))
    (stroke (width 0) (type default) (color 0 0 0 0))
    (uuid 1860e030-7a36-4298-b7fc-a16d48ab15ba)
  )
  (wire (pts (xy 137.16 90.17) (xy 139.7 90.17))
    (stroke (width 0) (type default) (color 0 0 0 0))
    (uuid 27f1175f-41b2-4a92-b15b-689d889b7a65)
  )
  (wire (pts (xy 127 114.3) (xy 139.7 114.3))
    (stroke (width 0) (type default) (color 0 0 0 0))
    (uuid 32667662-ae86-4904-b198-3e95f11851bf)
  )
  (wire (pts (xy 184.15 96.52) (xy 184.15 87.63))
    (stroke (width 0) (type default) (color 0 0 0 0))
    (uuid 381ffe4e-bbb1-4fc5-89fd-beb36610473c)
  )
  (wire (pts (xy 181.61 96.52) (xy 181.61 87.63))
    (stroke (width 0) (type default) (color 0 0 0 0))
    (uuid 3a10c76c-bfc5-401d-82ce-ee3e4f7068ac)
  )
  (wire (pts (xy 127 74.93) (xy 137.16 74.93))
    (stroke (width 0) (type default) (color 0 0 0 0))
    (uuid 3dcc657b-55a1-48e0-9667-e01e7b6b08b5)
  )
  (wire (pts (xy 139.7 82.55) (xy 139.7 69.85))
    (stroke (width 0) (type default) (color 0 0 0 0))
    (uuid 4037f4d0-6329-4789-9751-d3a08b6ca85c)
  )
  (wire (pts (xy 128.27 88.9) (xy 128.27 87.63))
    (stroke (width 0) (type default) (color 0 0 0 0))
    (uuid 40a8bdb3-621f-4c90-883d-072d466d3a70)
  )
  (wire (pts (xy 82.55 83.82) (xy 82.55 77.47))
    (stroke (width 0) (type default) (color 0 0 0 0))
    (uuid 48f827a8-6e22-4a2e-abdc-c2a03098d883)
  )
  (wire (pts (xy 176.53 90.17) (xy 176.53 87.63))
    (stroke (width 0) (type default) (color 0 0 0 0))
    (uuid 4b14e05e-230b-4390-88f2-d79de2419122)
  )
  (wire (pts (xy 118.11 114.3) (xy 121.92 114.3))
    (stroke (width 0) (type default) (color 0 0 0 0))
    (uuid 5b2b5c7d-f943-4634-9f0a-e9561705c49d)
  )
  (wire (pts (xy 127 104.14) (xy 137.16 104.14))
    (stroke (width 0) (type default) (color 0 0 0 0))
    (uuid 67f6e996-3c99-493c-8f6f-e739e2ed5d7a)
  )
  (wire (pts (xy 87.63 104.14) (xy 97.79 104.14))
    (stroke (width 0) (type default) (color 0 0 0 0))
    (uuid 68e09be7-3bbc-4443-a838-209ce20b2bef)
  )
  (wire (pts (xy 87.63 72.39) (xy 97.79 72.39))
    (stroke (width 0) (type default) (color 0 0 0 0))
    (uuid 6a780180-586a-4241-a52d-dc7a5ffcc966)
  )
  (wire (pts (xy 107.95 62.23) (xy 107.95 59.69))
    (stroke (width 0) (type default) (color 0 0 0 0))
    (uuid 6e105729-aba0-497c-a99e-c32d2b3ddb6d)
  )
  (wire (pts (xy 173.99 96.52) (xy 173.99 87.63))
    (stroke (width 0) (type default) (color 0 0 0 0))
    (uuid 6ea82ab8-058f-4c02-8876-c2619acfdda1)
  )
  (wire (pts (xy 142.24 92.71) (xy 139.7 90.17))
    (stroke (width 0) (type default) (color 0 0 0 0))
    (uuid 6faefc7d-e41b-49ec-aa49-e9ec55658628)
  )
  (wire (pts (xy 179.07 90.17) (xy 179.07 87.63))
    (stroke (width 0) (type default) (color 0 0 0 0))
    (uuid 7dc8968b-5d2a-48b1-89ff-eaf071a992fe)
  )
  (wire (pts (xy 127 87.63) (xy 128.27 87.63))
    (stroke (width 0) (type default) (color 0 0 0 0))
    (uuid 7f1b3515-f981-4c95-8f67-2aa812f05e12)
  )
  (wire (pts (xy 142.24 85.09) (xy 137.16 85.09))
    (stroke (width 0) (type default) (color 0 0 0 0))
    (uuid 80f119ae-df40-43f1-8f6c-72f6e7a51a6c)
  )
  (wire (pts (xy 82.55 109.22) (xy 82.55 120.65))
    (stroke (width 0) (type default) (color 0 0 0 0))
    (uuid 8d55e186-3e11-40e8-a65e-b36a8a00069e)
  )
  (wire (pts (xy 177.8 91.44) (xy 177.8 90.17))
    (stroke (width 0) (type default) (color 0 0 0 0))
    (uuid 92570080-e5d9-4f79-abc5-6bdd43c9c145)
  )
  (wire (pts (xy 139.7 92.71) (xy 139.7 114.3))
    (stroke (width 0) (type default) (color 0 0 0 0))
    (uuid 9c8a4414-735e-4a07-86e5-02895ddc7ff6)
  )
  (wire (pts (xy 118.11 74.93) (xy 121.92 74.93))
    (stroke (width 0) (type default) (color 0 0 0 0))
    (uuid 9c8ccb2a-b1e9-4f2c-94fe-301b5975277e)
  )
  (wire (pts (xy 118.11 104.14) (xy 121.92 104.14))
    (stroke (width 0) (type default) (color 0 0 0 0))
    (uuid a03e565f-d8cd-4032-aae3-b7327d4143dd)
  )
  (wire (pts (xy 179.07 90.17) (xy 177.8 90.17))
    (stroke (width 0) (type default) (color 0 0 0 0))
    (uuid b0e767f2-d50e-45fa-a043-03ee3562e223)
  )
  (wire (pts (xy 128.27 87.63) (xy 142.24 87.63))
    (stroke (width 0) (type default) (color 0 0 0 0))
    (uuid c580ed07-4c16-48be-989d-c4c8992f993f)
  )
  (wire (pts (xy 97.79 114.3) (xy 97.79 120.65))
    (stroke (width 0) (type default) (color 0 0 0 0))
    (uuid c70d9ef3-bfeb-47e0-a1e1-9aeba3da7864)
  )
  (wire (pts (xy 118.11 69.85) (xy 121.92 69.85))
    (stroke (width 0) (type default) (color 0 0 0 0))
    (uuid cef6f603-8a0b-4dd0-af99-ebfbef7d1b4b)
  )
  (wire (pts (xy 177.8 90.17) (xy 176.53 90.17))
    (stroke (width 0) (type default) (color 0 0 0 0))
    (uuid cfd2484d-a961-49fc-955e-2c08ba40c31e)
  )
  (wire (pts (xy 107.95 83.82) (xy 107.95 82.55))
    (stroke (width 0) (type default) (color 0 0 0 0))
    (uuid e877bf4a-4210-4bd3-b7b0-806eb4affc5b)
  )
  (wire (pts (xy 137.16 85.09) (xy 137.16 74.93))
    (stroke (width 0) (type default) (color 0 0 0 0))
    (uuid eda8feff-cb5b-4223-b3d6-d1e5924926e2)
  )
  (wire (pts (xy 137.16 90.17) (xy 137.16 104.14))
    (stroke (width 0) (type default) (color 0 0 0 0))
    (uuid f4733fc6-402f-4b82-81bd-a7f6e4137f73)
  )
  (wire (pts (xy 171.45 96.52) (xy 171.45 87.63))
    (stroke (width 0) (type default) (color 0 0 0 0))
    (uuid f5a63825-b5d0-4689-95d7-73382f27bff9)
  )
  (wire (pts (xy 168.91 87.63) (xy 168.91 88.9))
    (stroke (width 0) (type default) (color 0 0 0 0))
    (uuid fb02330c-655f-4779-bacc-e54da67f9a4d)
  )

  (label "RF24" (at 95.25 72.39 180)
    (effects (font (size 1.27 1.27)) (justify right bottom))
    (uuid 10c2845b-55bc-45fa-8637-caea9570b11c)
  )
  (label "RFN09" (at 134.62 114.3 180)
    (effects (font (size 1.27 1.27)) (justify right bottom))
    (uuid 13abf99d-5265-4779-8973-e94370fd18ff)
  )
  (label "FEA09" (at 171.45 88.9 270)
    (effects (font (size 1.27 1.27)) (justify right bottom))
    (uuid 1c8937d1-82c3-4c71-a788-85513dc2160f)
  )
  (label "RF09" (at 95.25 104.14 180)
    (effects (font (size 1.27 1.27)) (justify right bottom))
    (uuid 4b8531b5-736f-4b2a-a8d0-d43a7114ade9)
  )
  (label "RFP09" (at 134.62 104.14 180)
    (effects (font (size 1.27 1.27)) (justify right bottom))
    (uuid a05d7640-f2f6-4ba7-8c51-5a4af431fc13)
  )
  (label "RFN24" (at 134.62 74.93 180)
    (effects (font (size 1.27 1.27)) (justify right bottom))
    (uuid a7520ad3-0f8b-4788-92d4-8ffb277041e6)
  )
  (label "RFP24" (at 134.62 69.85 180)
    (effects (font (size 1.27 1.27)) (justify right bottom))
    (uuid a795f1ba-cdd5-4cc5-9a52-08586e982934)
  )
  (label "FEB24" (at 184.15 88.9 270)
    (effects (font (size 1.27 1.27)) (justify right bottom))
    (uuid d3a22d5a-9a37-4af7-865b-13ac61e2085a)
  )
  (label "FEA24" (at 181.61 88.9 270)
    (effects (font (size 1.27 1.27)) (justify right bottom))
    (uuid e52b82df-9c78-4427-aff0-111199235a03)
  )
  (label "FEB09" (at 173.99 88.9 270)
    (effects (font (size 1.27 1.27)) (justify right bottom))
    (uuid eb4e1615-35ea-4e70-b935-0d28ffa9a52d)
  )

  (symbol (lib_id "lsf-kicad:LTCC-Balun-06Pins") (at 107.95 72.39 0) (unit 1)
    (in_bom yes) (on_board yes)
    (uuid 00000000-0000-0000-0000-00005f9579f7)
    (property "Reference" "T101" (id 0) (at 107.95 49.53 0))
    (property "Value" "" (id 1) (at 107.95 52.07 0))
    (property "Footprint" "" (id 2) (at 107.95 72.39 0)
      (effects (font (size 1.27 1.27)) hide)
    )
    (property "Datasheet" "~" (id 3) (at 107.95 72.39 0)
      (effects (font (size 1.27 1.27)) hide)
    )
    (property "PartNumber" "2450BL15B050" (id 4) (at 95.25 58.42 0))
    (property "Mnf." "Johanson Technology" (id 5) (at 95.25 60.96 0))
    (pin "1" (uuid f23bb9e1-5e05-4bbf-b127-ffe25089156d))
    (pin "2" (uuid 7e6f1c93-04e3-4772-90bf-62a93cb7a441))
    (pin "3" (uuid 5bdd5001-6963-4df7-adb7-2ce61373b008))
    (pin "4" (uuid 1550eec9-61b8-4a78-9169-ce138015a6a4))
    (pin "5" (uuid 3b6c0748-74f2-434d-9dab-9cb69878bbfb))
    (pin "6" (uuid 7db57f0e-c003-4a7f-a15f-ca598dae4432))
  )

  (symbol (lib_id "Device:Transformer_1P_1S") (at 107.95 109.22 0) (unit 1)
    (in_bom yes) (on_board yes)
    (uuid 00000000-0000-0000-0000-00005f958067)
    (property "Reference" "T102" (id 0) (at 107.95 94.9198 0))
    (property "Value" "" (id 1) (at 107.95 97.2312 0))
    (property "Footprint" "" (id 2) (at 107.95 109.22 0)
      (effects (font (size 1.27 1.27)) hide)
    )
    (property "Datasheet" "~" (id 3) (at 107.95 109.22 0)
      (effects (font (size 1.27 1.27)) hide)
    )
    (property "Mnf." "TDK" (id 4) (at 107.95 99.5426 0))
    (property "PartNumber" "ATB2012-50011-T000" (id 5) (at 107.95 101.854 0))
    (pin "1" (uuid 6565c157-b9f0-40ab-abe9-dfe0616d4016))
    (pin "2" (uuid fa971bba-6f44-4d1b-aea3-fda778e90ccc))
    (pin "3" (uuid 1e857316-7914-46f8-982b-2cfd8084ac40))
    (pin "4" (uuid 529c3296-7567-4791-965b-c6289c029990))
  )

  (symbol (lib_id "Connector:Conn_Coaxial") (at 82.55 72.39 0) (mirror y) (unit 1)
    (in_bom yes) (on_board yes)
    (uuid 00000000-0000-0000-0000-00005f95b5be)
    (property "Reference" "RF24" (id 0) (at 84.3788 66.3448 0))
    (property "Value" "" (id 1) (at 84.3788 68.6562 0))
    (property "Footprint" "" (id 2) (at 82.55 72.39 0)
      (effects (font (size 1.27 1.27)) hide)
    )
    (property "Datasheet" " ~" (id 3) (at 82.55 72.39 0)
      (effects (font (size 1.27 1.27)) hide)
    )
    (pin "1" (uuid db2f29b1-aa1c-424d-b477-bc1b42e47381))
    (pin "2" (uuid c46661ed-a775-494b-a22c-e989957c7bad))
  )

  (symbol (lib_id "Connector:Conn_Coaxial") (at 82.55 104.14 0) (mirror y) (unit 1)
    (in_bom yes) (on_board yes)
    (uuid 00000000-0000-0000-0000-00005f95d17c)
    (property "Reference" "RF09" (id 0) (at 84.3788 98.0948 0))
    (property "Value" "" (id 1) (at 84.3788 100.4062 0))
    (property "Footprint" "" (id 2) (at 82.55 104.14 0)
      (effects (font (size 1.27 1.27)) hide)
    )
    (property "Datasheet" " ~" (id 3) (at 82.55 104.14 0)
      (effects (font (size 1.27 1.27)) hide)
    )
    (pin "1" (uuid a68099d4-407b-45a4-8b28-3b319691f93c))
    (pin "2" (uuid f50ff67c-bc98-4f0f-8643-c236014bd778))
  )

  (symbol (lib_id "power:GND") (at 82.55 83.82 0) (unit 1)
    (in_bom yes) (on_board yes)
    (uuid 00000000-0000-0000-0000-00005f95d9ea)
    (property "Reference" "#PWR0101" (id 0) (at 82.55 90.17 0)
      (effects (font (size 1.27 1.27)) hide)
    )
    (property "Value" "" (id 1) (at 82.677 88.2142 0))
    (property "Footprint" "" (id 2) (at 82.55 83.82 0)
      (effects (font (size 1.27 1.27)) hide)
    )
    (property "Datasheet" "" (id 3) (at 82.55 83.82 0)
      (effects (font (size 1.27 1.27)) hide)
    )
    (pin "1" (uuid 22cbb075-dfb0-4df1-8617-ba68d6b54879))
  )

  (symbol (lib_id "power:GND") (at 107.95 83.82 0) (unit 1)
    (in_bom yes) (on_board yes)
    (uuid 00000000-0000-0000-0000-00005f95e0bf)
    (property "Reference" "#PWR0105" (id 0) (at 107.95 90.17 0)
      (effects (font (size 1.27 1.27)) hide)
    )
    (property "Value" "" (id 1) (at 108.077 88.2142 0))
    (property "Footprint" "" (id 2) (at 107.95 83.82 0)
      (effects (font (size 1.27 1.27)) hide)
    )
    (property "Datasheet" "" (id 3) (at 107.95 83.82 0)
      (effects (font (size 1.27 1.27)) hide)
    )
    (pin "1" (uuid dae585a8-64cb-4af0-b873-d6bff82d4c47))
  )

  (symbol (lib_id "power:GND") (at 97.79 120.65 0) (unit 1)
    (in_bom yes) (on_board yes)
    (uuid 00000000-0000-0000-0000-00005f95e430)
    (property "Reference" "#PWR0103" (id 0) (at 97.79 127 0)
      (effects (font (size 1.27 1.27)) hide)
    )
    (property "Value" "" (id 1) (at 97.917 125.0442 0))
    (property "Footprint" "" (id 2) (at 97.79 120.65 0)
      (effects (font (size 1.27 1.27)) hide)
    )
    (property "Datasheet" "" (id 3) (at 97.79 120.65 0)
      (effects (font (size 1.27 1.27)) hide)
    )
    (pin "1" (uuid e0f0e473-7e5f-4b37-9b31-d09320a17856))
  )

  (symbol (lib_id "power:GND") (at 82.55 120.65 0) (unit 1)
    (in_bom yes) (on_board yes)
    (uuid 00000000-0000-0000-0000-00005f95e77f)
    (property "Reference" "#PWR0102" (id 0) (at 82.55 127 0)
      (effects (font (size 1.27 1.27)) hide)
    )
    (property "Value" "" (id 1) (at 82.677 125.0442 0))
    (property "Footprint" "" (id 2) (at 82.55 120.65 0)
      (effects (font (size 1.27 1.27)) hide)
    )
    (property "Datasheet" "" (id 3) (at 82.55 120.65 0)
      (effects (font (size 1.27 1.27)) hide)
    )
    (pin "1" (uuid ea2fc560-beec-4458-a301-8420eef7e28d))
  )

  (symbol (lib_id "Device:C_Small") (at 124.46 69.85 270) (unit 1)
    (in_bom yes) (on_board yes)
    (uuid 00000000-0000-0000-0000-00005f961beb)
    (property "Reference" "C101" (id 0) (at 124.46 64.0334 90))
    (property "Value" "" (id 1) (at 124.46 66.3448 90))
    (property "Footprint" "" (id 2) (at 124.46 69.85 0)
      (effects (font (size 1.27 1.27)) hide)
    )
    (property "Datasheet" "~" (id 3) (at 124.46 69.85 0)
      (effects (font (size 1.27 1.27)) hide)
    )
    (pin "1" (uuid 02dc98cf-cd92-4ecc-9a44-8a374cfd5215))
    (pin "2" (uuid b67dfcd9-582c-42ad-bc82-5f861f85492f))
  )

  (symbol (lib_id "Device:C_Small") (at 124.46 74.93 270) (mirror x) (unit 1)
    (in_bom yes) (on_board yes)
    (uuid 00000000-0000-0000-0000-00005f9633fd)
    (property "Reference" "C102" (id 0) (at 124.46 81.28 90))
    (property "Value" "" (id 1) (at 124.46 78.74 90))
    (property "Footprint" "" (id 2) (at 124.46 74.93 0)
      (effects (font (size 1.27 1.27)) hide)
    )
    (property "Datasheet" "~" (id 3) (at 124.46 74.93 0)
      (effects (font (size 1.27 1.27)) hide)
    )
    (pin "1" (uuid c864d739-d441-4960-bdee-b400882e9637))
    (pin "2" (uuid e19a65cc-8c55-43ca-bf7e-578646270dea))
  )

  (symbol (lib_id "Device:C_Small") (at 124.46 114.3 90) (unit 1)
    (in_bom yes) (on_board yes)
    (uuid 00000000-0000-0000-0000-00005f963ab0)
    (property "Reference" "C104" (id 0) (at 124.46 108.4834 90))
    (property "Value" "" (id 1) (at 124.46 110.7948 90))
    (property "Footprint" "" (id 2) (at 124.46 114.3 0)
      (effects (font (size 1.27 1.27)) hide)
    )
    (property "Datasheet" "~" (id 3) (at 124.46 114.3 0)
      (effects (font (size 1.27 1.27)) hide)
    )
    (pin "1" (uuid 2218f1df-2a7c-4586-8d5f-b0666b9050f8))
    (pin "2" (uuid 48f5a0dc-4b80-4b9f-a771-83de0b96a5a9))
  )

  (symbol (lib_id "Device:C_Small") (at 124.46 104.14 90) (unit 1)
    (in_bom yes) (on_board yes)
    (uuid 00000000-0000-0000-0000-00005f963f18)
    (property "Reference" "C103" (id 0) (at 124.46 98.3234 90))
    (property "Value" "" (id 1) (at 124.46 100.6348 90))
    (property "Footprint" "" (id 2) (at 124.46 104.14 0)
      (effects (font (size 1.27 1.27)) hide)
    )
    (property "Datasheet" "~" (id 3) (at 124.46 104.14 0)
      (effects (font (size 1.27 1.27)) hide)
    )
    (pin "1" (uuid 67ff405c-14c8-431b-8c3f-cc894b5aded5))
    (pin "2" (uuid edeed9d2-2863-47cf-a317-2f2c1d53c297))
  )

  (symbol (lib_id "power:GND") (at 107.95 59.69 180) (unit 1)
    (in_bom yes) (on_board yes)
    (uuid 00000000-0000-0000-0000-00005f96617e)
    (property "Reference" "#PWR0104" (id 0) (at 107.95 53.34 0)
      (effects (font (size 1.27 1.27)) hide)
    )
    (property "Value" "" (id 1) (at 107.823 55.2958 0))
    (property "Footprint" "" (id 2) (at 107.95 59.69 0)
      (effects (font (size 1.27 1.27)) hide)
    )
    (property "Datasheet" "" (id 3) (at 107.95 59.69 0)
      (effects (font (size 1.27 1.27)) hide)
    )
    (pin "1" (uuid ee6379e8-baa3-4077-98da-26cb178881b6))
  )

  (symbol (lib_id "Connector_Generic:Conn_01x02") (at 173.99 101.6 270) (unit 1)
    (in_bom yes) (on_board yes)
    (uuid 17c5c7e7-6ba7-4c68-b9b6-610dc4739327)
    (property "Reference" "J103" (id 0) (at 168.91 104.14 90)
      (effects (font (size 1.27 1.27)) (justify right))
    )
    (property "Value" "" (id 1) (at 168.91 101.6 90)
      (effects (font (size 1.27 1.27)) (justify right))
    )
    (property "Footprint" "" (id 2) (at 173.99 101.6 0)
      (effects (font (size 1.27 1.27)) hide)
    )
    (property "Datasheet" "~" (id 3) (at 173.99 101.6 0)
      (effects (font (size 1.27 1.27)) hide)
    )
    (pin "1" (uuid 4cb9ad4d-7a59-4f13-93de-8fc63ad574db))
    (pin "2" (uuid f1acee76-ccca-419e-a9b1-5340aa8b103e))
  )

  (symbol (lib_id "Connector_Generic:Conn_01x07") (at 176.53 82.55 90) (unit 1)
    (in_bom yes) (on_board yes) (fields_autoplaced)
    (uuid 58197d86-2296-4543-861a-4edf6f700570)
    (property "Reference" "J104" (id 0) (at 177.8 78.74 90))
    (property "Value" "" (id 1) (at 177.8 76.2 90))
    (property "Footprint" "" (id 2) (at 176.53 82.55 0)
      (effects (font (size 1.27 1.27)) hide)
    )
    (property "Datasheet" "~" (id 3) (at 176.53 82.55 0)
      (effects (font (size 1.27 1.27)) hide)
    )
    (pin "1" (uuid ff3c0510-f304-4478-9b73-00fde1ca3c3e))
    (pin "2" (uuid 45e255f6-2f27-47f4-92b7-3029febdd4e7))
    (pin "3" (uuid d4782b12-5044-4d4d-ba43-0f5605420f39))
    (pin "4" (uuid f71c594c-92da-4174-91bc-ead2a3894dc4))
    (pin "5" (uuid 65898cfd-2a8f-4917-8ee6-06a6f6420ce1))
    (pin "6" (uuid b256b271-7789-4b2d-86e0-04c41f783b22))
    (pin "7" (uuid 55a68dc3-58b3-4861-9ed5-fef6e389ecb6))
  )

  (symbol (lib_id "power:PWR_FLAG") (at 127 87.63 90) (unit 1)
    (in_bom yes) (on_board yes) (fields_autoplaced)
    (uuid 5e10abd7-4ed3-4ff8-91e8-cbbc51557939)
    (property "Reference" "#FLG0101" (id 0) (at 125.095 87.63 0)
      (effects (font (size 1.27 1.27)) hide)
    )
    (property "Value" "" (id 1) (at 123.19 87.6299 90)
      (effects (font (size 1.27 1.27)) (justify left))
    )
    (property "Footprint" "" (id 2) (at 127 87.63 0)
      (effects (font (size 1.27 1.27)) hide)
    )
    (property "Datasheet" "~" (id 3) (at 127 87.63 0)
      (effects (font (size 1.27 1.27)) hide)
    )
    (pin "1" (uuid eed16867-c0a9-4c99-b7f4-f013275a610c))
  )

  (symbol (lib_id "Mechanical:MountingHole") (at 204.47 96.52 0) (unit 1)
    (in_bom yes) (on_board yes) (fields_autoplaced)
    (uuid 64f8e42e-c771-4bf2-9795-4d689a4fa86e)
    (property "Reference" "H103" (id 0) (at 207.01 95.2499 0)
      (effects (font (size 1.27 1.27)) (justify left))
    )
    (property "Value" "" (id 1) (at 207.01 97.7899 0)
      (effects (font (size 1.27 1.27)) (justify left))
    )
    (property "Footprint" "" (id 2) (at 204.47 96.52 0)
      (effects (font (size 1.27 1.27)) hide)
    )
    (property "Datasheet" "~" (id 3) (at 204.47 96.52 0)
      (effects (font (size 1.27 1.27)) hide)
    )
  )

  (symbol (lib_id "power:GND") (at 177.8 91.44 0) (unit 1)
    (in_bom yes) (on_board yes)
    (uuid 6e7b5b76-2388-49e8-882a-44b7edb3e89c)
    (property "Reference" "#PWR0106" (id 0) (at 177.8 97.79 0)
      (effects (font (size 1.27 1.27)) hide)
    )
    (property "Value" "GND" (id 1) (at 177.927 95.8342 0))
    (property "Footprint" "" (id 2) (at 177.8 91.44 0)
      (effects (font (size 1.27 1.27)) hide)
    )
    (property "Datasheet" "" (id 3) (at 177.8 91.44 0)
      (effects (font (size 1.27 1.27)) hide)
    )
    (pin "1" (uuid 06d8bd70-59bd-4926-9ba0-6d7f7d3196e9))
  )

  (symbol (lib_id "Connector_Generic:Conn_01x05") (at 147.32 87.63 0) (unit 1)
    (in_bom yes) (on_board yes) (fields_autoplaced)
    (uuid 7585923e-a2aa-44a3-b18d-722e89d45876)
    (property "Reference" "J106" (id 0) (at 149.86 86.3599 0)
      (effects (font (size 1.27 1.27)) (justify left))
    )
    (property "Value" "" (id 1) (at 149.86 88.8999 0)
      (effects (font (size 1.27 1.27)) (justify left))
    )
    (property "Footprint" "" (id 2) (at 147.32 87.63 0)
      (effects (font (size 1.27 1.27)) hide)
    )
    (property "Datasheet" "~" (id 3) (at 147.32 87.63 0)
      (effects (font (size 1.27 1.27)) hide)
    )
    (pin "1" (uuid 16b6063d-7632-45c8-8f31-916dfaa52b60))
    (pin "2" (uuid 5b80163a-9aa1-48cb-ae86-7baf742965a5))
    (pin "3" (uuid ff571808-7b30-43db-969f-f105f24018f3))
    (pin "4" (uuid b668a9a9-6128-4550-845d-54511c3e37ea))
    (pin "5" (uuid 39fac573-cb51-4107-945e-7c104acb5765))
  )

  (symbol (lib_id "Mechanical:MountingHole") (at 204.47 91.44 0) (unit 1)
    (in_bom no) (on_board yes) (fields_autoplaced)
    (uuid 7b4d0ed6-df45-4654-a3dd-99c558f372a1)
    (property "Reference" "H102" (id 0) (at 207.01 90.1699 0)
      (effects (font (size 1.27 1.27)) (justify left))
    )
    (property "Value" "" (id 1) (at 207.01 92.7099 0)
      (effects (font (size 1.27 1.27)) (justify left))
    )
    (property "Footprint" "" (id 2) (at 204.47 91.44 0)
      (effects (font (size 1.27 1.27)) hide)
    )
    (property "Datasheet" "~" (id 3) (at 204.47 91.44 0)
      (effects (font (size 1.27 1.27)) hide)
    )
  )

  (symbol (lib_id "Mechanical:MountingHole") (at 204.47 86.36 0) (unit 1)
    (in_bom no) (on_board yes) (fields_autoplaced)
    (uuid 8d14ba09-1eee-4908-8944-a23677301419)
    (property "Reference" "H101" (id 0) (at 207.01 85.0899 0)
      (effects (font (size 1.27 1.27)) (justify left))
    )
    (property "Value" "" (id 1) (at 207.01 87.6299 0)
      (effects (font (size 1.27 1.27)) (justify left))
    )
    (property "Footprint" "" (id 2) (at 204.47 86.36 0)
      (effects (font (size 1.27 1.27)) hide)
    )
    (property "Datasheet" "~" (id 3) (at 204.47 86.36 0)
      (effects (font (size 1.27 1.27)) hide)
    )
  )

  (symbol (lib_id "Connector_Generic:Conn_01x02") (at 184.15 101.6 270) (unit 1)
    (in_bom yes) (on_board yes)
    (uuid b6c13a9d-22ea-497a-9bce-6322417c896b)
    (property "Reference" "J105" (id 0) (at 198.12 104.14 90)
      (effects (font (size 1.27 1.27)) (justify right))
    )
    (property "Value" "" (id 1) (at 198.12 101.6 90)
      (effects (font (size 1.27 1.27)) (justify right))
    )
    (property "Footprint" "" (id 2) (at 184.15 101.6 0)
      (effects (font (size 1.27 1.27)) hide)
    )
    (property "Datasheet" "~" (id 3) (at 184.15 101.6 0)
      (effects (font (size 1.27 1.27)) hide)
    )
    (pin "1" (uuid 728ba05c-7334-4064-9520-97bdb4f97950))
    (pin "2" (uuid d462515f-7f18-42fc-a0fb-3f10638b0176))
  )

  (symbol (lib_id "power:GND") (at 128.27 88.9 0) (unit 1)
    (in_bom yes) (on_board yes)
    (uuid f45a98b2-c092-47dc-be44-bca97a7af943)
    (property "Reference" "#PWR0107" (id 0) (at 128.27 95.25 0)
      (effects (font (size 1.27 1.27)) hide)
    )
    (property "Value" "GND" (id 1) (at 128.397 93.2942 0))
    (property "Footprint" "" (id 2) (at 128.27 88.9 0)
      (effects (font (size 1.27 1.27)) hide)
    )
    (property "Datasheet" "" (id 3) (at 128.27 88.9 0)
      (effects (font (size 1.27 1.27)) hide)
    )
    (pin "1" (uuid 35cb45f8-8e80-40e7-b61f-32d6fe788f38))
  )

  (sheet_instances
    (path "/" (page "1"))
  )

  (symbol_instances
    (path "/5e10abd7-4ed3-4ff8-91e8-cbbc51557939"
      (reference "#FLG0101") (unit 1) (value "PWR_FLAG") (footprint "")
    )
    (path "/00000000-0000-0000-0000-00005f95d9ea"
      (reference "#PWR0101") (unit 1) (value "GND") (footprint "")
    )
    (path "/00000000-0000-0000-0000-00005f95e77f"
      (reference "#PWR0102") (unit 1) (value "GND") (footprint "")
    )
    (path "/00000000-0000-0000-0000-00005f95e430"
      (reference "#PWR0103") (unit 1) (value "GND") (footprint "")
    )
    (path "/00000000-0000-0000-0000-00005f96617e"
      (reference "#PWR0104") (unit 1) (value "GND") (footprint "")
    )
    (path "/00000000-0000-0000-0000-00005f95e0bf"
      (reference "#PWR0105") (unit 1) (value "GND") (footprint "")
    )
    (path "/6e7b5b76-2388-49e8-882a-44b7edb3e89c"
      (reference "#PWR0106") (unit 1) (value "GND") (footprint "")
    )
    (path "/f45a98b2-c092-47dc-be44-bca97a7af943"
      (reference "#PWR0107") (unit 1) (value "GND") (footprint "")
    )
    (path "/00000000-0000-0000-0000-00005f961beb"
      (reference "C101") (unit 1) (value "100p") (footprint "Capacitor_SMD:C_0402_1005Metric")
    )
    (path "/00000000-0000-0000-0000-00005f9633fd"
      (reference "C102") (unit 1) (value "100p") (footprint "Capacitor_SMD:C_0402_1005Metric")
    )
    (path "/00000000-0000-0000-0000-00005f963f18"
      (reference "C103") (unit 1) (value "100p") (footprint "Capacitor_SMD:C_0402_1005Metric")
    )
    (path "/00000000-0000-0000-0000-00005f963ab0"
      (reference "C104") (unit 1) (value "100p") (footprint "Capacitor_SMD:C_0402_1005Metric")
    )
    (path "/8d14ba09-1eee-4908-8944-a23677301419"
      (reference "H101") (unit 1) (value "MountingHole") (footprint "MountingHole:MountingHole_2.2mm_M2_ISO7380")
    )
    (path "/7b4d0ed6-df45-4654-a3dd-99c558f372a1"
      (reference "H102") (unit 1) (value "MountingHole") (footprint "MountingHole:MountingHole_2.2mm_M2_ISO7380")
    )
    (path "/64f8e42e-c771-4bf2-9795-4d689a4fa86e"
      (reference "H103") (unit 1) (value "MountingHole") (footprint "MountingHole:MountingHole_2.2mm_M2_ISO7380")
    )
    (path "/17c5c7e7-6ba7-4c68-b9b6-610dc4739327"
      (reference "J103") (unit 1) (value "Conn_01x02") (footprint "Connector_PinHeader_1.27mm:PinHeader_1x02_P1.27mm_Vertical")
    )
    (path "/58197d86-2296-4543-861a-4edf6f700570"
      (reference "J104") (unit 1) (value "Conn_01x07") (footprint "Connector_Molex:Molex_PicoBlade_53261-0771_1x07-1MP_P1.25mm_Horizontal")
    )
    (path "/b6c13a9d-22ea-497a-9bce-6322417c896b"
      (reference "J105") (unit 1) (value "Conn_01x02") (footprint "Connector_PinHeader_1.27mm:PinHeader_1x02_P1.27mm_Vertical")
    )
    (path "/7585923e-a2aa-44a3-b18d-722e89d45876"
      (reference "J106") (unit 1) (value "Conn_01x05") (footprint "Connector_PinHeader_1.27mm:PinHeader_1x05_P1.27mm_Vertical")
    )
    (path "/00000000-0000-0000-0000-00005f95d17c"
      (reference "RF09") (unit 1) (value "Conn_Coaxial") (footprint "Connector_Coaxial:SMA_Amphenol_132134_Vertical")
    )
    (path "/00000000-0000-0000-0000-00005f95b5be"
      (reference "RF24") (unit 1) (value "Conn_Coaxial") (footprint "Connector_Coaxial:SMA_Amphenol_132134_Vertical")
    )
    (path "/00000000-0000-0000-0000-00005f9579f7"
      (reference "T101") (unit 1) (value "LTCC-Balun-06Pins") (footprint "RF_Converter:Anaren_0805_2012Metric-6")
    )
    (path "/00000000-0000-0000-0000-00005f958067"
      (reference "T102") (unit 1) (value "Transformer_1P_1S") (footprint "lsf-kicad-lib:ATB2012")
    )
  )
)
